
{
  "listPersonaA": [
    {
		"id":1,
		"nombre":"Juan",
		"apellido":"Perez"
    },
    {
		"id":2,
		"nombre":"Juan2",
		"apellido":"Perez2"
    },
    {
		"id":3,
		"nombre":"Juan3",
		"apellido":"Perez3"
    }
  ]
  ,
   "listPersonaB": [
    {
		"id":1,
		"nombre":"Sebastian",
		"apellido":"Escudero"
    },
    {
		"id":2,
		"nombre":"Sebastian2",
		"apellido":"Escudero2"
    },
    {
		"id":4,
		"nombre":"Juan3",
		"apellido":"Perez3"
	},
	{
		"id":5,
		"nombre":"Sebastian5",
		"apellido":"Perez5"
    },
	{
		"id":6,
		"nombre":"Jose",
		"apellido":"Cuervo6"
    }
  ]
  
  
    ,
   "listaDireccionC": [
    {
		"personaId":"1",
		"calle":"Lavalle",
		"altura":"150",
		"ciudad":"Buenos Aires",
		"provincia":"Buenos Aires",
		"pais":"Argentina"
    },
    {
		"personaId":"2",
		"calle":"Corrientes",
		"altura":"150",
		"ciudad":"Buenos Aires",
		"provincia":"Buenos Aires",
		"pais":"Argentina"
    },
    {
		"personaId":"3",
		"calle":"Florida",
		"altura":"150",
		"ciudad":"Buenos Aires",
		"provincia":"Buenos Aires",
		"pais":"Argentina"
    }
  ]
  
  
    ,
   "listaDireccionD": [
    {
		"personaId":"1",
		"calle":"Cordoba",
		"altura":"150",
		"ciudad":"Buenos Aires",
		"provincia":"Buenos Aires",
		"pais":"Argentina"
    },
    {
		"personaId":"4",
		"calle":"Reconquista",
		"altura":"150",
		"ciudad":"Buenos Aires",
		"provincia":"Buenos Aires",
		"pais":"Argentina"
    },
    {
		"personaId":"5",
		"calle":"Alem",
		"altura":"150",
		"ciudad":"Buenos Aires",
		"provincia":"Buenos Aires",
		"pais":"Argentina"
    }
  ]
  
      ,
   "listaCP": [
    {
		"codigoPostal":"1047",
		"calle":"Lavalle",
		"ciudad":"Buenos Aires",
		"provincia":"Buenos Aires"
    },
    {
		"codigoPostal":"1049",
		"calle":"Libertador",
		"ciudad":"Buenos Aires",
		"provincia":"Buenos Aires"
    },
    {
		"calle":"Calle Falsa",
		"ciudad":"Azul",
		"provincia":"Buenos Aires",
		"pais":"Argentina",
		"altura":"123"
    }
  ]
}
